…
Here, we create a table containing observed values (`size`, `latitude`),
fitted values (`.fitted`) (i.e., expected or model-fitted size for each
latitude), residuals (`.resid`) (i.e., difference between
expected/fitted size and observed size for each latitude), and several
other statistics that we won’t talk about right now.

``` r
augment(crab_lat_fit$fit)
```

    ## # A tibble: 392 × 8
    ##     size latitude .fitted .resid   .hat .sigma   .cooksd .std.resid
    ##    <dbl>    <dbl>   <dbl>  <dbl>  <dbl>  <dbl>     <dbl>      <dbl>
    ##  1  12.4       30    10.9  1.50  0.0109   2.83 0.00156       0.533 
    ##  2  14.2       30    10.9  3.25  0.0109   2.83 0.00732       1.15  
    ##  3  14.5       30    10.9  3.59  0.0109   2.83 0.00893       1.28  
    ##  4  12.9       30    10.9  2.01  0.0109   2.83 0.00280       0.714 
    ##  5  12.4       30    10.9  1.52  0.0109   2.83 0.00160       0.540 
    ##  6  13.0       30    10.9  2.06  0.0109   2.83 0.00294       0.732 
    ##  7  10.3       30    10.9 -0.609 0.0109   2.83 0.000257     -0.216 
    ##  8  11.2       30    10.9  0.261 0.0109   2.84 0.0000471     0.0926
    ##  9  12.7       30    10.9  1.75  0.0109   2.83 0.00212       0.622 
    ## 10  14.6       30    10.9  3.62  0.0109   2.83 0.00908       1.29  
    ## # … with 382 more rows
…
Here, we create a table containing observed values (`size`, `latitude`),
fitted values (`.fitted`) (i.e., expected/fitted size for each site),
residuals (`.resid`) (i.e., difference between expected/fitted size and
observed size for each latitude).

``` r
augment(crab_site_fit$fit)
```

    ## # A tibble: 392 × 8
    ##     size name                      .fitted  .resid   .hat .sigma .cooksd .std.…¹
    ##    <dbl> <chr>                       <dbl>   <dbl>  <dbl>  <dbl>   <dbl>   <dbl>
    ##  1  12.4 Guana Tolomoto Matanzas …    12.4  0.0268 0.0357   2.64 3.06e-7  0.0104
    ##  2  14.2 Guana Tolomoto Matanzas …    12.4  1.78   0.0357   2.63 1.35e-3  0.687 
    ##  3  14.5 Guana Tolomoto Matanzas …    12.4  2.12   0.0357   2.63 1.91e-3  0.819 
    ##  4  12.9 Guana Tolomoto Matanzas …    12.4  0.537  0.0357   2.64 1.23e-4  0.208 
    ##  5  12.4 Guana Tolomoto Matanzas …    12.4  0.0468 0.0357   2.64 9.33e-7  0.0181
    ##  6  13.0 Guana Tolomoto Matanzas …    12.4  0.587  0.0357   2.64 1.47e-4  0.227 
    ##  7  10.3 Guana Tolomoto Matanzas …    12.4 -2.08   0.0357   2.63 1.85e-3 -0.806 
    ##  8  11.2 Guana Tolomoto Matanzas …    12.4 -1.21   0.0357   2.64 6.28e-4 -0.469 
    ##  9  12.7 Guana Tolomoto Matanzas …    12.4  0.277  0.0357   2.64 3.27e-5  0.107 
    ## 10  14.6 Guana Tolomoto Matanzas …    12.4  2.15   0.0357   2.63 1.96e-3  0.830 
    ## # … with 382 more rows, and abbreviated variable name ¹​.std.resid
…
