…
<!-- end list -->

``` r
relig_income_long <- relig_income %>%
  pivot_longer(cols = 2:11,
               names_to = "income", 
               values_to = "count")

relig_income_long
```

    ## # A tibble: 180 × 3
    ##    religion income             count
    ##    <chr>    <chr>              <dbl>
    ##  1 Agnostic <$10k                 27
    ##  2 Agnostic $10-20k               34
    ##  3 Agnostic $20-30k               60
    ##  4 Agnostic $30-40k               81
    ##  5 Agnostic $40-50k               76
    ##  6 Agnostic $50-75k              137
    ##  7 Agnostic $75-100k             122
    ##  8 Agnostic $100-150k            109
    ##  9 Agnostic >150k                 84
    ## 10 Agnostic Don't know/refused    96
    ## # … with 170 more rows
…
6.  The following dataset contains information on individually tagged
    fish (`fish`), the `station` at which each fish was measured, and
    whether or not it was seen (1 for yes - only observations where fish
    were seen are included). Note the number of rows and columns in the
    dataset.

<!-- end list -->

``` r
fish_encounters
```

    ## # A tibble: 114 × 3
    ##    fish  station  seen
    ##    <fct> <fct>   <int>
    ##  1 4842  Release     1
    ##  2 4842  I80_1       1
    ##  3 4842  Lisbon      1
    ##  4 4842  Rstr        1
    ##  5 4842  Base_TD     1
    ##  6 4842  BCE         1
    ##  7 4842  BCW         1
    ##  8 4842  BCE2        1
    ##  9 4842  BCW2        1
    ## 10 4842  MAE         1
    ## # … with 104 more rows
…
7.  Convert `fish_long0` back to long format so that it is tidy for
    formulating our model but now contains 0s for observations when a
    fish was not observed. How many rows does it contain now? Why does
    it contain more rows than the original dataset?

<!-- end list -->

``` r
fish_long0 %>%
  pivot_longer(cols = 2:12,
               names_to = "station", 
               values_to = "seen")
```

    ## # A tibble: 209 × 3
    ##    fish  station  seen
    ##    <fct> <chr>   <int>
    ##  1 4842  Release     1
    ##  2 4842  I80_1       1
    ##  3 4842  Lisbon      1
    ##  4 4842  Rstr        1
    ##  5 4842  Base_TD     1
    ##  6 4842  BCE         1
    ##  7 4842  BCW         1
    ##  8 4842  BCE2        1
    ##  9 4842  BCW2        1
    ## 10 4842  MAE         1
    ## # … with 199 more rows
